........
----------------------------------------------------------------------
Ran 8 tests in 0.001s

OK
Name               Stmts   Miss Branch BrPart  Cover   Missing
--------------------------------------------------------------
Diplomacy.py          54      2     32      2    95%   8, 52->53, 53, 54->44
TestDiplomacy.py      49      0      2      1    98%   59->exit
--------------------------------------------------------------
TOTAL                103      2     34      3    96%
